<?xml version="1.0" encoding="UTF-8" standalone="no"?>
<!DOCTYPE svg PUBLIC "-//W3C//DTD SVG 1.1//EN" "http://www.w3.org/Graphics/SVG/1.1/DTD/svg11.dtd">
<svg xmlns:xlink="http://www.w3.org/1999/xlink" height="1648px" version="1.1" viewBox="0 0 2955 1648" width="2955px" x="0px" y="0px" xmlns="http://www.w3.org/2000/svg">
  <rect height="1648" style="fill:rgb(255,255,255);stroke:none;" width="2955" x="0" y="0"/>
  <line style="fill:none;stroke:rgb(0,0,0);stroke-miterlimit:10;stroke-linecap:square;" x1="1335" x2="1694" y1="848" y2="848"/>
  <line style="fill:none;stroke:rgb(0,0,0);stroke-miterlimit:10;stroke-linecap:square;" x1="1314" x2="1335" y1="851" y2="848"/>
  <line style="fill:none;stroke:rgb(0,0,0);stroke-miterlimit:10;stroke-linecap:square;" x1="1289" x2="1314" y1="847" y2="851"/>
  <line style="fill:none;stroke:rgb(0,0,0);stroke-miterlimit:10;stroke-linecap:square;" x1="1309" x2="1335" y1="844" y2="848"/>
  <line style="fill:none;stroke:rgb(0,0,0);stroke-miterlimit:10;stroke-linecap:square;" x1="1309" x2="1289" y1="844" y2="847"/>
  <line style="fill:none;stroke:rgb(0,0,0);stroke-miterlimit:10;stroke-linecap:square;" x1="1249" x2="1289" y1="847" y2="847"/>
  <line style="fill:none;stroke:rgb(0,0,0);stroke-miterlimit:10;stroke-linecap:square;" x1="1235" x2="1249" y1="843" y2="847"/>
  <line style="fill:none;stroke:rgb(0,0,0);stroke-miterlimit:10;stroke-linecap:square;" x1="1275" x2="1289" y1="843" y2="847"/>
  <line style="fill:none;stroke:rgb(0,0,0);stroke-miterlimit:10;stroke-linecap:square;" x1="1275" x2="1235" y1="843" y2="843"/>
  <line style="fill:none;stroke:rgb(0,0,0);stroke-miterlimit:10;stroke-linecap:square;" x1="1295" x2="1309" y1="840" y2="844"/>
  <line style="fill:none;stroke:rgb(0,0,0);stroke-miterlimit:10;stroke-linecap:square;" x1="1295" x2="1275" y1="840" y2="843"/>
  <line style="fill:none;stroke:rgb(0,0,0);stroke-miterlimit:10;stroke-linecap:square;" x1="1228" x2="1235" y1="844" y2="843"/>
  <line style="fill:none;stroke:rgb(0,0,0);stroke-miterlimit:10;stroke-linecap:square;" x1="1228" x2="1228" y1="844" y2="844"/>
  <line style="fill:none;stroke:rgb(0,0,0);stroke-miterlimit:10;stroke-linecap:square;" x1="1235" x2="1235" y1="843" y2="843"/>
  <line style="fill:none;stroke:rgb(0,0,0);stroke-miterlimit:10;stroke-linecap:square;" x1="1235" x2="1228" y1="843" y2="844"/>
  <line style="fill:none;stroke:rgb(0,0,0);stroke-miterlimit:10;stroke-linecap:square;" x1="1189" x2="1228" y1="844" y2="844"/>
  <line style="fill:none;stroke:rgb(0,0,0);stroke-miterlimit:10;stroke-linecap:square;" x1="1171" x2="1189" y1="827" y2="844"/>
  <line style="fill:none;stroke:rgb(0,0,0);stroke-miterlimit:10;stroke-linecap:square;" x1="1210" x2="1228" y1="827" y2="844"/>
  <line style="fill:none;stroke:rgb(0,0,0);stroke-miterlimit:10;stroke-linecap:square;" x1="1210" x2="1171" y1="827" y2="827"/>
  <line style="fill:none;stroke:rgb(0,0,0);stroke-miterlimit:10;stroke-linecap:square;" x1="1217" x2="1235" y1="826" y2="843"/>
  <line style="fill:none;stroke:rgb(0,0,0);stroke-miterlimit:10;stroke-linecap:square;" x1="1217" x2="1210" y1="826" y2="827"/>
  <line style="fill:none;stroke:rgb(0,0,0);stroke-miterlimit:10;stroke-linecap:square;" x1="1217" x2="1235" y1="826" y2="843"/>
  <line style="fill:none;stroke:rgb(0,0,0);stroke-miterlimit:10;stroke-linecap:square;" x1="1217" x2="1217" y1="826" y2="826"/>
  <line style="fill:none;stroke:rgb(0,0,0);stroke-miterlimit:10;stroke-linecap:square;" x1="1221" x2="1228" y1="849" y2="844"/>
  <line style="fill:none;stroke:rgb(0,0,0);stroke-miterlimit:10;stroke-linecap:square;" x1="1221" x2="1228" y1="849" y2="844"/>
  <line style="fill:none;stroke:rgb(0,0,0);stroke-miterlimit:10;stroke-linecap:square;" x1="1221" x2="1221" y1="849" y2="849"/>
  <line style="fill:none;stroke:rgb(0,0,0);stroke-miterlimit:10;stroke-linecap:square;" x1="1182" x2="1189" y1="849" y2="844"/>
  <line style="fill:none;stroke:rgb(0,0,0);stroke-miterlimit:10;stroke-linecap:square;" x1="1182" x2="1221" y1="849" y2="849"/>
  <line style="fill:none;stroke:rgb(0,0,0);stroke-miterlimit:10;stroke-linecap:square;" x1="1164" x2="1171" y1="832" y2="827"/>
  <line style="fill:none;stroke:rgb(0,0,0);stroke-miterlimit:10;stroke-linecap:square;" x1="1164" x2="1182" y1="832" y2="849"/>
  <line style="fill:none;stroke:rgb(0,0,0);stroke-miterlimit:10;stroke-linecap:square;" x1="1314" x2="1314" y1="854" y2="851"/>
  <line style="fill:none;stroke:rgb(0,0,0);stroke-miterlimit:10;stroke-linecap:square;" x1="1314" x2="1705" y1="854" y2="975"/>
  <line style="fill:none;stroke:rgb(0,0,0);stroke-miterlimit:10;stroke-linecap:square;" x1="1288" x2="1289" y1="850" y2="847"/>
  <line style="fill:none;stroke:rgb(0,0,0);stroke-miterlimit:10;stroke-linecap:square;" x1="1288" x2="1314" y1="850" y2="854"/>
  <line style="fill:none;stroke:rgb(0,0,0);stroke-miterlimit:10;stroke-linecap:square;" x1="1248" x2="1249" y1="850" y2="847"/>
  <line style="fill:none;stroke:rgb(0,0,0);stroke-miterlimit:10;stroke-linecap:square;" x1="1248" x2="1288" y1="850" y2="850"/>
  <line style="fill:none;stroke:rgb(0,0,0);stroke-miterlimit:10;stroke-linecap:square;" x1="1234" x2="1235" y1="846" y2="843"/>
  <line style="fill:none;stroke:rgb(0,0,0);stroke-miterlimit:10;stroke-linecap:square;" x1="1234" x2="1248" y1="846" y2="850"/>
  <line style="fill:none;stroke:rgb(0,0,0);stroke-miterlimit:10;stroke-linecap:square;" x1="1228" x2="1228" y1="847" y2="844"/>
  <line style="fill:none;stroke:rgb(0,0,0);stroke-miterlimit:10;stroke-linecap:square;" x1="1228" x2="1234" y1="847" y2="846"/>
  <line style="fill:none;stroke:rgb(0,0,0);stroke-miterlimit:10;stroke-linecap:square;" x1="1221" x2="1221" y1="852" y2="849"/>
  <line style="fill:none;stroke:rgb(0,0,0);stroke-miterlimit:10;stroke-linecap:square;" x1="1221" x2="1228" y1="852" y2="847"/>
  <line style="fill:none;stroke:rgb(0,0,0);stroke-miterlimit:10;stroke-linecap:square;" x1="1220" x2="1221" y1="852" y2="849"/>
  <line style="fill:none;stroke:rgb(0,0,0);stroke-miterlimit:10;stroke-linecap:square;" x1="1220" x2="1221" y1="852" y2="852"/>
  <line style="fill:none;stroke:rgb(0,0,0);stroke-miterlimit:10;stroke-linecap:square;" x1="1182" x2="1182" y1="852" y2="849"/>
  <line style="fill:none;stroke:rgb(0,0,0);stroke-miterlimit:10;stroke-linecap:square;" x1="1182" x2="1220" y1="852" y2="852"/>
  <line style="fill:none;stroke:rgb(0,0,0);stroke-miterlimit:10;stroke-linecap:square;" x1="1164" x2="1164" y1="835" y2="832"/>
  <line style="fill:none;stroke:rgb(0,0,0);stroke-miterlimit:10;stroke-linecap:square;" x1="1164" x2="1182" y1="835" y2="852"/>
  <line style="fill:none;stroke:rgb(0,0,0);stroke-miterlimit:10;stroke-linecap:square;" x1="1220" x2="1221" y1="852" y2="852"/>
  <line style="fill:none;stroke:rgb(0,0,0);stroke-miterlimit:10;stroke-linecap:square;" x1="1220" x2="1220" y1="852" y2="852"/>
  <line style="fill:none;stroke:rgb(0,0,0);stroke-miterlimit:10;stroke-linecap:square;" x1="1220" x2="1220" y1="852" y2="852"/>
  <line style="fill:none;stroke:rgb(0,0,0);stroke-miterlimit:10;stroke-linecap:square;" x1="1181" x2="1182" y1="852" y2="852"/>
  <line style="fill:none;stroke:rgb(0,0,0);stroke-miterlimit:10;stroke-linecap:square;" x1="1181" x2="1220" y1="852" y2="852"/>
  <line style="fill:none;stroke:rgb(0,0,0);stroke-miterlimit:10;stroke-linecap:square;" x1="1163" x2="1164" y1="835" y2="835"/>
  <line style="fill:none;stroke:rgb(0,0,0);stroke-miterlimit:10;stroke-linecap:square;" x1="1163" x2="1181" y1="835" y2="852"/>
  <line style="fill:none;stroke:rgb(0,0,0);stroke-miterlimit:10;stroke-linecap:square;" x1="1164" x2="1164" y1="832" y2="832"/>
  <line style="fill:none;stroke:rgb(0,0,0);stroke-miterlimit:10;stroke-linecap:square;" x1="1164" x2="1163" y1="832" y2="835"/>
  <line style="fill:none;stroke:rgb(0,0,0);stroke-miterlimit:10;stroke-linecap:square;" x1="1172" x2="1181" y1="857" y2="852"/>
  <line style="fill:none;stroke:rgb(0,0,0);stroke-miterlimit:10;stroke-linecap:square;" x1="1154" x2="1163" y1="840" y2="835"/>
  <line style="fill:none;stroke:rgb(0,0,0);stroke-miterlimit:10;stroke-linecap:square;" x1="1154" x2="1172" y1="840" y2="857"/>
  <line style="fill:none;stroke:rgb(0,0,0);stroke-miterlimit:10;stroke-linecap:square;" x1="1154" x2="1164" y1="837" y2="832"/>
  <line style="fill:none;stroke:rgb(0,0,0);stroke-miterlimit:10;stroke-linecap:square;" x1="1154" x2="1154" y1="837" y2="840"/>
  <line style="fill:none;stroke:rgb(0,0,0);stroke-miterlimit:10;stroke-linecap:square;" x1="1154" x2="1164" y1="837" y2="832"/>
  <line style="fill:none;stroke:rgb(0,0,0);stroke-miterlimit:10;stroke-linecap:square;" x1="1154" x2="1154" y1="837" y2="837"/>
  <line style="fill:none;stroke:rgb(0,0,0);stroke-miterlimit:10;stroke-linecap:square;" x1="1159" x2="1172" y1="859" y2="857"/>
  <line style="fill:none;stroke:rgb(0,0,0);stroke-miterlimit:10;stroke-linecap:square;" x1="1141" x2="1154" y1="842" y2="840"/>
  <line style="fill:none;stroke:rgb(0,0,0);stroke-miterlimit:10;stroke-linecap:square;" x1="1141" x2="1159" y1="842" y2="859"/>
  <line style="fill:none;stroke:rgb(0,0,0);stroke-miterlimit:10;stroke-linecap:square;" x1="1142" x2="1154" y1="839" y2="837"/>
  <line style="fill:none;stroke:rgb(0,0,0);stroke-miterlimit:10;stroke-linecap:square;" x1="1142" x2="1141" y1="839" y2="842"/>
  <line style="fill:none;stroke:rgb(0,0,0);stroke-miterlimit:10;stroke-linecap:square;" x1="1142" x2="1154" y1="838" y2="837"/>
  <line style="fill:none;stroke:rgb(0,0,0);stroke-miterlimit:10;stroke-linecap:square;" x1="1142" x2="1142" y1="838" y2="839"/>
  <line style="fill:none;stroke:rgb(0,0,0);stroke-miterlimit:10;stroke-linecap:square;" x1="1152" x2="1164" y1="834" y2="832"/>
  <line style="fill:none;stroke:rgb(0,0,0);stroke-miterlimit:10;stroke-linecap:square;" x1="1152" x2="1142" y1="834" y2="838"/>
  <line style="fill:none;stroke:rgb(0,0,0);stroke-miterlimit:10;stroke-linecap:square;" x1="1159" x2="1171" y1="829" y2="827"/>
  <line style="fill:none;stroke:rgb(0,0,0);stroke-miterlimit:10;stroke-linecap:square;" x1="1159" x2="1152" y1="829" y2="834"/>
  <line style="fill:none;stroke:rgb(0,0,0);stroke-miterlimit:10;stroke-linecap:square;" x1="1210" x2="1220" y1="865" y2="852"/>
  <line style="fill:none;stroke:rgb(0,0,0);stroke-miterlimit:10;stroke-linecap:square;" x1="1210" x2="1220" y1="865" y2="852"/>
  <line style="fill:none;stroke:rgb(0,0,0);stroke-miterlimit:10;stroke-linecap:square;" x1="1210" x2="1210" y1="865" y2="865"/>
  <line style="fill:none;stroke:rgb(0,0,0);stroke-miterlimit:10;stroke-linecap:square;" x1="1171" x2="1181" y1="865" y2="852"/>
  <line style="fill:none;stroke:rgb(0,0,0);stroke-miterlimit:10;stroke-linecap:square;" x1="1171" x2="1210" y1="865" y2="865"/>
  <line style="fill:none;stroke:rgb(0,0,0);stroke-miterlimit:10;stroke-linecap:square;" x1="1161" x2="1172" y1="870" y2="857"/>
  <line style="fill:none;stroke:rgb(0,0,0);stroke-miterlimit:10;stroke-linecap:square;" x1="1161" x2="1171" y1="870" y2="865"/>
  <line style="fill:none;stroke:rgb(0,0,0);stroke-miterlimit:10;stroke-linecap:square;" x1="1149" x2="1159" y1="871" y2="859"/>
  <line style="fill:none;stroke:rgb(0,0,0);stroke-miterlimit:10;stroke-linecap:square;" x1="1149" x2="1161" y1="871" y2="870"/>
  <line style="fill:none;stroke:rgb(0,0,0);stroke-miterlimit:10;stroke-linecap:square;" x1="1131" x2="1141" y1="855" y2="842"/>
  <line style="fill:none;stroke:rgb(0,0,0);stroke-miterlimit:10;stroke-linecap:square;" x1="1131" x2="1149" y1="855" y2="871"/>
  <line style="fill:none;stroke:rgb(0,0,0);stroke-miterlimit:10;stroke-linecap:square;" x1="1132" x2="1142" y1="851" y2="839"/>
  <line style="fill:none;stroke:rgb(0,0,0);stroke-miterlimit:10;stroke-linecap:square;" x1="1132" x2="1131" y1="851" y2="855"/>
  <line style="fill:none;stroke:rgb(0,0,0);stroke-miterlimit:10;stroke-linecap:square;" x1="1209" x2="1210" y1="867" y2="865"/>
  <line style="fill:none;stroke:rgb(0,0,0);stroke-miterlimit:10;stroke-linecap:square;" x1="1209" x2="1210" y1="867" y2="865"/>
  <line style="fill:none;stroke:rgb(0,0,0);stroke-miterlimit:10;stroke-linecap:square;" x1="1209" x2="1209" y1="867" y2="867"/>
  <line style="fill:none;stroke:rgb(0,0,0);stroke-miterlimit:10;stroke-linecap:square;" x1="1170" x2="1171" y1="867" y2="865"/>
  <line style="fill:none;stroke:rgb(0,0,0);stroke-miterlimit:10;stroke-linecap:square;" x1="1170" x2="1209" y1="867" y2="867"/>
  <line style="fill:none;stroke:rgb(0,0,0);stroke-miterlimit:10;stroke-linecap:square;" x1="1160" x2="1161" y1="871" y2="870"/>
  <line style="fill:none;stroke:rgb(0,0,0);stroke-miterlimit:10;stroke-linecap:square;" x1="1160" x2="1170" y1="871" y2="867"/>
  <line style="fill:none;stroke:rgb(0,0,0);stroke-miterlimit:10;stroke-linecap:square;" x1="1148" x2="1149" y1="873" y2="871"/>
  <line style="fill:none;stroke:rgb(0,0,0);stroke-miterlimit:10;stroke-linecap:square;" x1="1148" x2="1160" y1="873" y2="871"/>
  <line style="fill:none;stroke:rgb(0,0,0);stroke-miterlimit:10;stroke-linecap:square;" x1="1130" x2="1131" y1="856" y2="855"/>
  <line style="fill:none;stroke:rgb(0,0,0);stroke-miterlimit:10;stroke-linecap:square;" x1="1130" x2="1148" y1="856" y2="873"/>
  <line style="fill:none;stroke:rgb(0,0,0);stroke-miterlimit:10;stroke-linecap:square;" x1="1145" x2="1148" y1="874" y2="873"/>
  <line style="fill:none;stroke:rgb(0,0,0);stroke-miterlimit:10;stroke-linecap:square;" x1="1127" x2="1130" y1="857" y2="856"/>
  <line style="fill:none;stroke:rgb(0,0,0);stroke-miterlimit:10;stroke-linecap:square;" x1="1127" x2="1145" y1="857" y2="874"/>
  <line style="fill:none;stroke:rgb(0,0,0);stroke-miterlimit:10;stroke-linecap:square;" x1="1128" x2="1131" y1="855" y2="855"/>
  <line style="fill:none;stroke:rgb(0,0,0);stroke-miterlimit:10;stroke-linecap:square;" x1="1128" x2="1127" y1="855" y2="857"/>
  <line style="fill:none;stroke:rgb(0,0,0);stroke-miterlimit:10;stroke-linecap:square;" x1="1129" x2="1132" y1="852" y2="851"/>
  <line style="fill:none;stroke:rgb(0,0,0);stroke-miterlimit:10;stroke-linecap:square;" x1="1129" x2="1128" y1="852" y2="855"/>
  <line style="fill:none;stroke:rgb(0,0,0);stroke-miterlimit:10;stroke-linecap:square;" x1="1139" x2="1142" y1="839" y2="839"/>
  <line style="fill:none;stroke:rgb(0,0,0);stroke-miterlimit:10;stroke-linecap:square;" x1="1139" x2="1129" y1="839" y2="852"/>
  <line style="fill:none;stroke:rgb(0,0,0);stroke-miterlimit:10;stroke-linecap:square;" x1="1139" x2="1142" y1="839" y2="838"/>
  <line style="fill:none;stroke:rgb(0,0,0);stroke-miterlimit:10;stroke-linecap:square;" x1="1139" x2="1139" y1="839" y2="839"/>
  <line style="fill:none;stroke:rgb(0,0,0);stroke-miterlimit:10;stroke-linecap:square;" x1="1125" x2="1127" y1="857" y2="857"/>
  <line style="fill:none;stroke:rgb(0,0,0);stroke-miterlimit:10;stroke-linecap:square;" x1="1126" x2="1128" y1="855" y2="855"/>
  <line style="fill:none;stroke:rgb(0,0,0);stroke-miterlimit:10;stroke-linecap:square;" x1="1126" x2="1125" y1="855" y2="857"/>
  <line style="fill:none;stroke:rgb(0,0,0);stroke-miterlimit:10;stroke-linecap:square;" x1="1127" x2="1129" y1="852" y2="852"/>
  <line style="fill:none;stroke:rgb(0,0,0);stroke-miterlimit:10;stroke-linecap:square;" x1="1127" x2="1126" y1="852" y2="855"/>
  <line style="fill:none;stroke:rgb(0,0,0);stroke-miterlimit:10;stroke-linecap:square;" x1="1137" x2="1139" y1="839" y2="839"/>
  <line style="fill:none;stroke:rgb(0,0,0);stroke-miterlimit:10;stroke-linecap:square;" x1="1137" x2="1127" y1="839" y2="852"/>
  <line style="fill:none;stroke:rgb(0,0,0);stroke-miterlimit:10;stroke-linecap:square;" x1="1137" x2="1139" y1="839" y2="839"/>
  <line style="fill:none;stroke:rgb(0,0,0);stroke-miterlimit:10;stroke-linecap:square;" x1="1137" x2="1137" y1="839" y2="839"/>
  <line style="fill:none;stroke:rgb(0,0,0);stroke-miterlimit:10;stroke-linecap:square;" x1="1124" x2="1125" y1="857" y2="857"/>
  <line style="fill:none;stroke:rgb(0,0,0);stroke-miterlimit:10;stroke-linecap:square;" x1="1125" x2="1126" y1="855" y2="855"/>
  <line style="fill:none;stroke:rgb(0,0,0);stroke-miterlimit:10;stroke-linecap:square;" x1="1125" x2="1124" y1="855" y2="857"/>
  <line style="fill:none;stroke:rgb(0,0,0);stroke-miterlimit:10;stroke-linecap:square;" x1="1126" x2="1127" y1="852" y2="852"/>
  <line style="fill:none;stroke:rgb(0,0,0);stroke-miterlimit:10;stroke-linecap:square;" x1="1126" x2="1125" y1="852" y2="855"/>
  <line style="fill:none;stroke:rgb(0,0,0);stroke-miterlimit:10;stroke-linecap:square;" x1="1136" x2="1137" y1="839" y2="839"/>
  <line style="fill:none;stroke:rgb(0,0,0);stroke-miterlimit:10;stroke-linecap:square;" x1="1136" x2="1126" y1="839" y2="852"/>
  <line style="fill:none;stroke:rgb(0,0,0);stroke-miterlimit:10;stroke-linecap:square;" x1="1136" x2="1137" y1="839" y2="839"/>
  <line style="fill:none;stroke:rgb(0,0,0);stroke-miterlimit:10;stroke-linecap:square;" x1="1136" x2="1136" y1="839" y2="839"/>
  <line style="fill:none;stroke:rgb(0,0,0);stroke-miterlimit:10;stroke-linecap:square;" x1="1138" x2="1139" y1="839" y2="839"/>
  <line style="fill:none;stroke:rgb(0,0,0);stroke-miterlimit:10;stroke-linecap:square;" x1="1138" x2="1136" y1="839" y2="839"/>
  <line style="fill:none;stroke:rgb(0,0,0);stroke-miterlimit:10;stroke-linecap:square;" x1="1141" x2="1142" y1="838" y2="838"/>
  <line style="fill:none;stroke:rgb(0,0,0);stroke-miterlimit:10;stroke-linecap:square;" x1="1141" x2="1138" y1="838" y2="839"/>
  <line style="fill:none;stroke:rgb(0,0,0);stroke-miterlimit:10;stroke-linecap:square;" x1="1151" x2="1152" y1="833" y2="834"/>
  <line style="fill:none;stroke:rgb(0,0,0);stroke-miterlimit:10;stroke-linecap:square;" x1="1151" x2="1141" y1="833" y2="838"/>
  <line style="fill:none;stroke:rgb(0,0,0);stroke-miterlimit:10;stroke-linecap:square;" x1="1158" x2="1159" y1="829" y2="829"/>
  <line style="fill:none;stroke:rgb(0,0,0);stroke-miterlimit:10;stroke-linecap:square;" x1="1158" x2="1151" y1="829" y2="833"/>
  <line style="fill:none;stroke:rgb(0,0,0);stroke-miterlimit:10;stroke-linecap:square;" x1="1135" x2="1148" y1="885" y2="873"/>
  <line style="fill:none;stroke:rgb(0,0,0);stroke-miterlimit:10;stroke-linecap:square;" x1="1132" x2="1145" y1="886" y2="874"/>
  <line style="fill:none;stroke:rgb(0,0,0);stroke-miterlimit:10;stroke-linecap:square;" x1="1132" x2="1135" y1="886" y2="885"/>
  <line style="fill:none;stroke:rgb(0,0,0);stroke-miterlimit:10;stroke-linecap:square;" x1="1114" x2="1127" y1="869" y2="857"/>
  <line style="fill:none;stroke:rgb(0,0,0);stroke-miterlimit:10;stroke-linecap:square;" x1="1114" x2="1132" y1="869" y2="886"/>
  <line style="fill:none;stroke:rgb(0,0,0);stroke-miterlimit:10;stroke-linecap:square;" x1="1112" x2="1125" y1="869" y2="857"/>
  <line style="fill:none;stroke:rgb(0,0,0);stroke-miterlimit:10;stroke-linecap:square;" x1="1112" x2="1114" y1="869" y2="869"/>
  <line style="fill:none;stroke:rgb(0,0,0);stroke-miterlimit:10;stroke-linecap:square;" x1="1111" x2="1124" y1="868" y2="857"/>
  <line style="fill:none;stroke:rgb(0,0,0);stroke-miterlimit:10;stroke-linecap:square;" x1="1111" x2="1112" y1="868" y2="869"/>
  <line style="fill:none;stroke:rgb(0,0,0);stroke-miterlimit:10;stroke-linecap:square;" x1="1072" x2="1112" y1="881" y2="869"/>
  <line style="fill:none;stroke:rgb(0,0,0);stroke-miterlimit:10;stroke-linecap:square;" x1="1070" x2="1111" y1="881" y2="868"/>
  <line style="fill:none;stroke:rgb(0,0,0);stroke-miterlimit:10;stroke-linecap:square;" x1="1070" x2="1072" y1="881" y2="881"/>
  <line style="fill:none;stroke:rgb(0,0,0);stroke-miterlimit:10;stroke-linecap:square;" x1="1083" x2="1124" y1="869" y2="857"/>
  <line style="fill:none;stroke:rgb(0,0,0);stroke-miterlimit:10;stroke-linecap:square;" x1="1083" x2="1070" y1="869" y2="881"/>
  <line style="fill:none;stroke:rgb(0,0,0);stroke-miterlimit:10;stroke-linecap:square;" x1="1084" x2="1125" y1="867" y2="855"/>
  <line style="fill:none;stroke:rgb(0,0,0);stroke-miterlimit:10;stroke-linecap:square;" x1="1084" x2="1083" y1="867" y2="869"/>
  <line style="fill:none;stroke:rgb(0,0,0);stroke-miterlimit:10;stroke-linecap:square;" x1="1085" x2="1126" y1="864" y2="852"/>
  <line style="fill:none;stroke:rgb(0,0,0);stroke-miterlimit:10;stroke-linecap:square;" x1="1085" x2="1084" y1="864" y2="867"/>
  <line style="fill:none;stroke:rgb(0,0,0);stroke-miterlimit:10;stroke-linecap:square;" x1="1067" x2="1070" y1="881" y2="881"/>
  <line style="fill:none;stroke:rgb(0,0,0);stroke-miterlimit:10;stroke-linecap:square;" x1="1080" x2="1083" y1="869" y2="869"/>
  <line style="fill:none;stroke:rgb(0,0,0);stroke-miterlimit:10;stroke-linecap:square;" x1="1080" x2="1067" y1="869" y2="881"/>
  <line style="fill:none;stroke:rgb(0,0,0);stroke-miterlimit:10;stroke-linecap:square;" x1="1081" x2="1084" y1="867" y2="867"/>
  <line style="fill:none;stroke:rgb(0,0,0);stroke-miterlimit:10;stroke-linecap:square;" x1="1081" x2="1080" y1="867" y2="869"/>
  <line style="fill:none;stroke:rgb(0,0,0);stroke-miterlimit:10;stroke-linecap:square;" x1="1082" x2="1085" y1="864" y2="864"/>
  <line style="fill:none;stroke:rgb(0,0,0);stroke-miterlimit:10;stroke-linecap:square;" x1="1082" x2="1081" y1="864" y2="867"/>
  <line style="fill:none;stroke:rgb(0,0,0);stroke-miterlimit:10;stroke-linecap:square;" x1="1122" x2="1126" y1="852" y2="852"/>
  <line style="fill:none;stroke:rgb(0,0,0);stroke-miterlimit:10;stroke-linecap:square;" x1="1122" x2="1082" y1="852" y2="864"/>
  <line style="fill:none;stroke:rgb(0,0,0);stroke-miterlimit:10;stroke-linecap:square;" x1="1132" x2="1136" y1="839" y2="839"/>
  <line style="fill:none;stroke:rgb(0,0,0);stroke-miterlimit:10;stroke-linecap:square;" x1="1132" x2="1122" y1="839" y2="852"/>
  <line style="fill:none;stroke:rgb(0,0,0);stroke-miterlimit:10;stroke-linecap:square;" x1="1027" x2="1072" y1="903" y2="881"/>
  <line style="fill:none;stroke:rgb(0,0,0);stroke-miterlimit:10;stroke-linecap:square;" x1="1026" x2="1070" y1="902" y2="881"/>
  <line style="fill:none;stroke:rgb(0,0,0);stroke-miterlimit:10;stroke-linecap:square;" x1="1026" x2="1027" y1="902" y2="903"/>
  <line style="fill:none;stroke:rgb(0,0,0);stroke-miterlimit:10;stroke-linecap:square;" x1="1023" x2="1067" y1="902" y2="881"/>
  <line style="fill:none;stroke:rgb(0,0,0);stroke-miterlimit:10;stroke-linecap:square;" x1="1023" x2="1026" y1="902" y2="902"/>
  <line style="fill:none;stroke:rgb(0,0,0);stroke-miterlimit:10;stroke-linecap:square;" x1="1158" x2="1160" y1="899" y2="871"/>
  <line style="fill:none;stroke:rgb(0,0,0);stroke-miterlimit:10;stroke-linecap:square;" x1="1146" x2="1148" y1="901" y2="873"/>
  <line style="fill:none;stroke:rgb(0,0,0);stroke-miterlimit:10;stroke-linecap:square;" x1="1146" x2="1158" y1="901" y2="899"/>
  <line style="fill:none;stroke:rgb(0,0,0);stroke-miterlimit:10;stroke-linecap:square;" x1="1133" x2="1135" y1="913" y2="885"/>
  <line style="fill:none;stroke:rgb(0,0,0);stroke-miterlimit:10;stroke-linecap:square;" x1="1133" x2="1146" y1="913" y2="901"/>
  <line style="fill:none;stroke:rgb(0,0,0);stroke-miterlimit:10;stroke-linecap:square;" x1="1130" x2="1132" y1="913" y2="886"/>
  <line style="fill:none;stroke:rgb(0,0,0);stroke-miterlimit:10;stroke-linecap:square;" x1="1130" x2="1133" y1="913" y2="913"/>
  <line style="fill:none;stroke:rgb(0,0,0);stroke-miterlimit:10;stroke-linecap:square;" x1="1112" x2="1114" y1="897" y2="869"/>
  <line style="fill:none;stroke:rgb(0,0,0);stroke-miterlimit:10;stroke-linecap:square;" x1="1112" x2="1130" y1="897" y2="913"/>
  <line style="fill:none;stroke:rgb(0,0,0);stroke-miterlimit:10;stroke-linecap:square;" x1="1110" x2="1112" y1="897" y2="869"/>
  <line style="fill:none;stroke:rgb(0,0,0);stroke-miterlimit:10;stroke-linecap:square;" x1="1110" x2="1112" y1="897" y2="897"/>
  <line style="fill:none;stroke:rgb(0,0,0);stroke-miterlimit:10;stroke-linecap:square;" x1="1070" x2="1072" y1="909" y2="881"/>
  <line style="fill:none;stroke:rgb(0,0,0);stroke-miterlimit:10;stroke-linecap:square;" x1="1070" x2="1110" y1="909" y2="897"/>
  <line style="fill:none;stroke:rgb(0,0,0);stroke-miterlimit:10;stroke-linecap:square;" x1="1025" x2="1027" y1="931" y2="903"/>
  <line style="fill:none;stroke:rgb(0,0,0);stroke-miterlimit:10;stroke-linecap:square;" x1="1025" x2="1070" y1="931" y2="909"/>
  <line style="fill:none;stroke:rgb(0,0,0);stroke-miterlimit:10;stroke-linecap:square;" x1="990" x2="1023" y1="912" y2="902"/>
  <line style="fill:none;stroke:rgb(0,0,0);stroke-miterlimit:10;stroke-linecap:square;" x1="1133" x2="1133" y1="915" y2="913"/>
  <line style="fill:none;stroke:rgb(0,0,0);stroke-miterlimit:10;stroke-linecap:square;" x1="1130" x2="1130" y1="916" y2="913"/>
  <line style="fill:none;stroke:rgb(0,0,0);stroke-miterlimit:10;stroke-linecap:square;" x1="1130" x2="1133" y1="916" y2="915"/>
  <line style="fill:none;stroke:rgb(0,0,0);stroke-miterlimit:10;stroke-linecap:square;" x1="1112" x2="1112" y1="899" y2="897"/>
  <line style="fill:none;stroke:rgb(0,0,0);stroke-miterlimit:10;stroke-linecap:square;" x1="1112" x2="1130" y1="899" y2="916"/>
  <line style="fill:none;stroke:rgb(0,0,0);stroke-miterlimit:10;stroke-linecap:square;" x1="1110" x2="1110" y1="899" y2="897"/>
  <line style="fill:none;stroke:rgb(0,0,0);stroke-miterlimit:10;stroke-linecap:square;" x1="1110" x2="1112" y1="899" y2="899"/>
  <line style="fill:none;stroke:rgb(0,0,0);stroke-miterlimit:10;stroke-linecap:square;" x1="1069" x2="1070" y1="911" y2="909"/>
  <line style="fill:none;stroke:rgb(0,0,0);stroke-miterlimit:10;stroke-linecap:square;" x1="1069" x2="1110" y1="911" y2="899"/>
  <line style="fill:none;stroke:rgb(0,0,0);stroke-miterlimit:10;stroke-linecap:square;" x1="1025" x2="1025" y1="933" y2="931"/>
  <line style="fill:none;stroke:rgb(0,0,0);stroke-miterlimit:10;stroke-linecap:square;" x1="1025" x2="1069" y1="933" y2="911"/>
  <line style="fill:none;stroke:rgb(0,0,0);stroke-miterlimit:10;stroke-linecap:square;" x1="999" x2="1025" y1="957" y2="933"/>
  <line style="fill:none;stroke:rgb(0,0,0);stroke-miterlimit:10;stroke-linecap:square;" x1="999" x2="1025" y1="955" y2="931"/>
  <line style="fill:none;stroke:rgb(0,0,0);stroke-miterlimit:10;stroke-linecap:square;" x1="999" x2="999" y1="955" y2="957"/>
  <line style="fill:none;stroke:rgb(0,0,0);stroke-miterlimit:10;stroke-linecap:square;" x1="1001" x2="1027" y1="927" y2="903"/>
  <line style="fill:none;stroke:rgb(0,0,0);stroke-miterlimit:10;stroke-linecap:square;" x1="1001" x2="999" y1="927" y2="955"/>
  <line style="fill:none;stroke:rgb(0,0,0);stroke-miterlimit:10;stroke-linecap:square;" x1="1000" x2="1026" y1="926" y2="902"/>
  <line style="fill:none;stroke:rgb(0,0,0);stroke-miterlimit:10;stroke-linecap:square;" x1="1000" x2="1001" y1="926" y2="927"/>
  <line style="fill:none;stroke:rgb(0,0,0);stroke-miterlimit:10;stroke-linecap:square;" x1="997" x2="1023" y1="926" y2="902"/>
  <line style="fill:none;stroke:rgb(0,0,0);stroke-miterlimit:10;stroke-linecap:square;" x1="997" x2="1000" y1="926" y2="926"/>
  <line style="fill:none;stroke:rgb(0,0,0);stroke-miterlimit:10;stroke-linecap:square;" x1="964" x2="990" y1="936" y2="912"/>
  <line style="fill:none;stroke:rgb(0,0,0);stroke-miterlimit:10;stroke-linecap:square;" x1="964" x2="997" y1="936" y2="926"/>
  <line style="fill:none;stroke:rgb(0,0,0);stroke-miterlimit:10;stroke-linecap:square;" x1="943" x2="964" y1="940" y2="936"/>
  <line style="fill:none;stroke:rgb(0,0,0);stroke-miterlimit:10;stroke-linecap:square;" x1="968" x2="990" y1="916" y2="912"/>
  <line style="fill:none;stroke:rgb(0,0,0);stroke-miterlimit:10;stroke-linecap:square;" x1="968" x2="943" y1="916" y2="940"/>
  <line style="fill:none;stroke:rgb(0,0,0);stroke-miterlimit:10;stroke-linecap:square;" x1="958" x2="968" y1="914" y2="916"/>
  <line style="fill:none;stroke:rgb(0,0,0);stroke-miterlimit:10;stroke-linecap:square;" x1="980" x2="990" y1="911" y2="912"/>
  <line style="fill:none;stroke:rgb(0,0,0);stroke-miterlimit:10;stroke-linecap:square;" x1="980" x2="958" y1="911" y2="914"/>
  <line style="fill:none;stroke:rgb(0,0,0);stroke-miterlimit:10;stroke-linecap:square;" x1="1013" x2="1023" y1="901" y2="902"/>
  <line style="fill:none;stroke:rgb(0,0,0);stroke-miterlimit:10;stroke-linecap:square;" x1="1013" x2="980" y1="901" y2="911"/>
  <line style="fill:none;stroke:rgb(0,0,0);stroke-miterlimit:10;stroke-linecap:square;" x1="1057" x2="1067" y1="879" y2="881"/>
  <line style="fill:none;stroke:rgb(0,0,0);stroke-miterlimit:10;stroke-linecap:square;" x1="1057" x2="1013" y1="879" y2="901"/>
  <line style="fill:none;stroke:rgb(0,0,0);stroke-miterlimit:10;stroke-linecap:square;" x1="1070" x2="1080" y1="868" y2="869"/>
  <line style="fill:none;stroke:rgb(0,0,0);stroke-miterlimit:10;stroke-linecap:square;" x1="1070" x2="1057" y1="868" y2="879"/>
  <line style="fill:none;stroke:rgb(0,0,0);stroke-miterlimit:10;stroke-linecap:square;" x1="1071" x2="1081" y1="866" y2="867"/>
  <line style="fill:none;stroke:rgb(0,0,0);stroke-miterlimit:10;stroke-linecap:square;" x1="1071" x2="1070" y1="866" y2="868"/>
  <line style="fill:none;stroke:rgb(0,0,0);stroke-miterlimit:10;stroke-linecap:square;" x1="1071" x2="1082" y1="863" y2="864"/>
  <line style="fill:none;stroke:rgb(0,0,0);stroke-miterlimit:10;stroke-linecap:square;" x1="1071" x2="1071" y1="863" y2="866"/>
  <line style="fill:none;stroke:rgb(0,0,0);stroke-miterlimit:10;stroke-linecap:square;" x1="983" x2="1071" y1="781" y2="863"/>
  <line style="fill:none;stroke:rgb(0,0,0);stroke-miterlimit:10;stroke-linecap:square;" x1="983" x2="874" y1="781" y2="728"/>
  <line style="fill:none;stroke:rgb(0,0,0);stroke-miterlimit:10;stroke-linecap:square;" x1="993" x2="1082" y1="782" y2="864"/>
  <line style="fill:none;stroke:rgb(0,0,0);stroke-miterlimit:10;stroke-linecap:square;" x1="993" x2="983" y1="782" y2="781"/>
  <line style="fill:none;stroke:rgb(0,0,0);stroke-miterlimit:10;stroke-linecap:square;" x1="1034" x2="1122" y1="770" y2="852"/>
  <line style="fill:none;stroke:rgb(0,0,0);stroke-miterlimit:10;stroke-linecap:square;" x1="1034" x2="993" y1="770" y2="782"/>
  <line style="fill:none;stroke:rgb(0,0,0);stroke-miterlimit:10;stroke-linecap:square;" x1="1044" x2="1132" y1="757" y2="839"/>
  <line style="fill:none;stroke:rgb(0,0,0);stroke-miterlimit:10;stroke-linecap:square;" x1="1044" x2="1034" y1="757" y2="770"/>
  <line style="fill:none;stroke:rgb(0,0,0);stroke-miterlimit:10;stroke-linecap:square;" x1="1047" x2="1136" y1="757" y2="839"/>
  <line style="fill:none;stroke:rgb(0,0,0);stroke-miterlimit:10;stroke-linecap:square;" x1="1047" x2="1044" y1="757" y2="757"/>
  <line style="fill:none;stroke:rgb(0,0,0);stroke-miterlimit:10;stroke-linecap:square;" x1="1048" x2="1136" y1="757" y2="839"/>
  <line style="fill:none;stroke:rgb(0,0,0);stroke-miterlimit:10;stroke-linecap:square;" x1="1048" x2="1047" y1="757" y2="757"/>
  <line style="fill:none;stroke:rgb(0,0,0);stroke-miterlimit:10;stroke-linecap:square;" x1="1037" x2="1044" y1="745" y2="757"/>
  <line style="fill:none;stroke:rgb(0,0,0);stroke-miterlimit:10;stroke-linecap:square;" x1="1041" x2="1047" y1="745" y2="757"/>
  <line style="fill:none;stroke:rgb(0,0,0);stroke-miterlimit:10;stroke-linecap:square;" x1="1041" x2="1037" y1="745" y2="745"/>
  <line style="fill:none;stroke:rgb(0,0,0);stroke-miterlimit:10;stroke-linecap:square;" x1="1041" x2="1048" y1="745" y2="757"/>
  <line style="fill:none;stroke:rgb(0,0,0);stroke-miterlimit:10;stroke-linecap:square;" x1="1041" x2="1041" y1="745" y2="745"/>
  <line style="fill:none;stroke:rgb(0,0,0);stroke-miterlimit:10;stroke-linecap:square;" x1="1129" x2="1136" y1="827" y2="839"/>
  <line style="fill:none;stroke:rgb(0,0,0);stroke-miterlimit:10;stroke-linecap:square;" x1="1129" x2="1041" y1="827" y2="745"/>
  <line style="fill:none;stroke:rgb(0,0,0);stroke-miterlimit:10;stroke-linecap:square;" x1="1131" x2="1138" y1="827" y2="839"/>
  <line style="fill:none;stroke:rgb(0,0,0);stroke-miterlimit:10;stroke-linecap:square;" x1="1131" x2="1129" y1="827" y2="827"/>
  <line style="fill:none;stroke:rgb(0,0,0);stroke-miterlimit:10;stroke-linecap:square;" x1="1134" x2="1141" y1="827" y2="838"/>
  <line style="fill:none;stroke:rgb(0,0,0);stroke-miterlimit:10;stroke-linecap:square;" x1="1134" x2="1131" y1="827" y2="827"/>
  <line style="fill:none;stroke:rgb(0,0,0);stroke-miterlimit:10;stroke-linecap:square;" x1="1144" x2="1151" y1="822" y2="833"/>
  <line style="fill:none;stroke:rgb(0,0,0);stroke-miterlimit:10;stroke-linecap:square;" x1="1144" x2="1134" y1="822" y2="827"/>
  <line style="fill:none;stroke:rgb(0,0,0);stroke-miterlimit:10;stroke-linecap:square;" x1="1151" x2="1158" y1="817" y2="829"/>
  <line style="fill:none;stroke:rgb(0,0,0);stroke-miterlimit:10;stroke-linecap:square;" x1="1151" x2="1144" y1="817" y2="822"/>
  <line style="fill:none;stroke:rgb(0,0,0);stroke-miterlimit:10;stroke-linecap:square;" x1="1180" x2="1171" y1="817" y2="827"/>
  <line style="fill:none;stroke:rgb(0,0,0);stroke-miterlimit:10;stroke-linecap:square;" x1="1218" x2="1210" y1="817" y2="827"/>
  <line style="fill:none;stroke:rgb(0,0,0);stroke-miterlimit:10;stroke-linecap:square;" x1="1218" x2="1180" y1="817" y2="817"/>
  <line style="fill:none;stroke:rgb(0,0,0);stroke-miterlimit:10;stroke-linecap:square;" x1="1225" x2="1217" y1="816" y2="826"/>
  <line style="fill:none;stroke:rgb(0,0,0);stroke-miterlimit:10;stroke-linecap:square;" x1="1225" x2="1218" y1="816" y2="817"/>
  <line style="fill:none;stroke:rgb(0,0,0);stroke-miterlimit:10;stroke-linecap:square;" x1="1225" x2="1217" y1="816" y2="826"/>
  <line style="fill:none;stroke:rgb(0,0,0);stroke-miterlimit:10;stroke-linecap:square;" x1="1225" x2="1225" y1="816" y2="816"/>
  <line style="fill:none;stroke:rgb(0,0,0);stroke-miterlimit:10;stroke-linecap:square;" x1="1285" x2="1248" y1="884" y2="850"/>
  <line style="fill:none;stroke:rgb(0,0,0);stroke-miterlimit:10;stroke-linecap:square;" x1="1285" x2="1592" y1="884" y2="1094"/>
  <line style="fill:none;stroke:rgb(0,0,0);stroke-miterlimit:10;stroke-linecap:square;" x1="1271" x2="1234" y1="880" y2="846"/>
  <line style="fill:none;stroke:rgb(0,0,0);stroke-miterlimit:10;stroke-linecap:square;" x1="1271" x2="1285" y1="880" y2="884"/>
  <line style="fill:none;stroke:rgb(0,0,0);stroke-miterlimit:10;stroke-linecap:square;" x1="1264" x2="1228" y1="881" y2="847"/>
  <line style="fill:none;stroke:rgb(0,0,0);stroke-miterlimit:10;stroke-linecap:square;" x1="1264" x2="1271" y1="881" y2="880"/>
  <line style="fill:none;stroke:rgb(0,0,0);stroke-miterlimit:10;stroke-linecap:square;" x1="1257" x2="1221" y1="886" y2="852"/>
  <line style="fill:none;stroke:rgb(0,0,0);stroke-miterlimit:10;stroke-linecap:square;" x1="1257" x2="1264" y1="886" y2="881"/>
  <line style="fill:none;stroke:rgb(0,0,0);stroke-miterlimit:10;stroke-linecap:square;" x1="1257" x2="1220" y1="886" y2="852"/>
  <line style="fill:none;stroke:rgb(0,0,0);stroke-miterlimit:10;stroke-linecap:square;" x1="1257" x2="1257" y1="886" y2="886"/>
  <line style="fill:none;stroke:rgb(0,0,0);stroke-miterlimit:10;stroke-linecap:square;" x1="1247" x2="1210" y1="899" y2="865"/>
  <line style="fill:none;stroke:rgb(0,0,0);stroke-miterlimit:10;stroke-linecap:square;" x1="1247" x2="1257" y1="899" y2="886"/>
  <line style="fill:none;stroke:rgb(0,0,0);stroke-miterlimit:10;stroke-linecap:square;" x1="1246" x2="1209" y1="900" y2="867"/>
  <line style="fill:none;stroke:rgb(0,0,0);stroke-miterlimit:10;stroke-linecap:square;" x1="1246" x2="1247" y1="900" y2="899"/>
  <line style="fill:none;stroke:rgb(0,0,0);stroke-miterlimit:10;stroke-linecap:square;" x1="1246" x2="1457" y1="900" y2="1165"/>
  <line style="fill:none;stroke:rgb(0,0,0);stroke-miterlimit:10;stroke-linecap:square;" x1="1162" x2="1158" y1="914" y2="899"/>
  <line style="fill:none;stroke:rgb(0,0,0);stroke-miterlimit:10;stroke-linecap:square;" x1="1162" x2="1268" y1="914" y2="1186"/>
  <line style="fill:none;stroke:rgb(0,0,0);stroke-miterlimit:10;stroke-linecap:square;" x1="1149" x2="1146" y1="916" y2="901"/>
  <line style="fill:none;stroke:rgb(0,0,0);stroke-miterlimit:10;stroke-linecap:square;" x1="1149" x2="1162" y1="916" y2="914"/>
  <line style="fill:none;stroke:rgb(0,0,0);stroke-miterlimit:10;stroke-linecap:square;" x1="1137" x2="1133" y1="928" y2="913"/>
  <line style="fill:none;stroke:rgb(0,0,0);stroke-miterlimit:10;stroke-linecap:square;" x1="1137" x2="1149" y1="928" y2="916"/>
  <line style="fill:none;stroke:rgb(0,0,0);stroke-miterlimit:10;stroke-linecap:square;" x1="1136" x2="1133" y1="930" y2="915"/>
  <line style="fill:none;stroke:rgb(0,0,0);stroke-miterlimit:10;stroke-linecap:square;" x1="1136" x2="1137" y1="930" y2="928"/>
  <line style="fill:none;stroke:rgb(0,0,0);stroke-miterlimit:10;stroke-linecap:square;" x1="1119" x2="1136" y1="1154" y2="930"/>
  <line style="fill:none;stroke:rgb(0,0,0);stroke-miterlimit:10;stroke-linecap:square;" x1="1116" x2="1133" y1="1140" y2="915"/>
  <line style="fill:none;stroke:rgb(0,0,0);stroke-miterlimit:10;stroke-linecap:square;" x1="1116" x2="1119" y1="1140" y2="1154"/>
  <line style="fill:none;stroke:rgb(0,0,0);stroke-miterlimit:10;stroke-linecap:square;" x1="1113" x2="1130" y1="1140" y2="916"/>
  <line style="fill:none;stroke:rgb(0,0,0);stroke-miterlimit:10;stroke-linecap:square;" x1="1113" x2="1116" y1="1140" y2="1140"/>
  <line style="fill:none;stroke:rgb(0,0,0);stroke-miterlimit:10;stroke-linecap:square;" x1="1113" x2="1106" y1="1140" y2="1171"/>
  <line style="fill:none;stroke:rgb(0,0,0);stroke-miterlimit:10;stroke-linecap:square;" x1="975" x2="999" y1="987" y2="957"/>
  <line style="fill:none;stroke:rgb(0,0,0);stroke-miterlimit:10;stroke-linecap:square;" x1="975" x2="999" y1="985" y2="955"/>
  <line style="fill:none;stroke:rgb(0,0,0);stroke-miterlimit:10;stroke-linecap:square;" x1="975" x2="975" y1="985" y2="987"/>
  <line style="fill:none;stroke:rgb(0,0,0);stroke-miterlimit:10;stroke-linecap:square;" x1="978" x2="1001" y1="957" y2="927"/>
  <line style="fill:none;stroke:rgb(0,0,0);stroke-miterlimit:10;stroke-linecap:square;" x1="978" x2="975" y1="957" y2="985"/>
  <line style="fill:none;stroke:rgb(0,0,0);stroke-miterlimit:10;stroke-linecap:square;" x1="976" x2="1000" y1="956" y2="926"/>
  <line style="fill:none;stroke:rgb(0,0,0);stroke-miterlimit:10;stroke-linecap:square;" x1="976" x2="978" y1="956" y2="957"/>
  <line style="fill:none;stroke:rgb(0,0,0);stroke-miterlimit:10;stroke-linecap:square;" x1="973" x2="997" y1="956" y2="926"/>
  <line style="fill:none;stroke:rgb(0,0,0);stroke-miterlimit:10;stroke-linecap:square;" x1="973" x2="976" y1="956" y2="956"/>
  <line style="fill:none;stroke:rgb(0,0,0);stroke-miterlimit:10;stroke-linecap:square;" x1="940" x2="964" y1="966" y2="936"/>
  <line style="fill:none;stroke:rgb(0,0,0);stroke-miterlimit:10;stroke-linecap:square;" x1="940" x2="973" y1="966" y2="956"/>
  <line style="fill:none;stroke:rgb(0,0,0);stroke-miterlimit:10;stroke-linecap:square;" x1="936" x2="940" y1="970" y2="966"/>
  <line style="fill:none;stroke:rgb(0,0,0);stroke-miterlimit:10;stroke-linecap:square;" x1="936" x2="890" y1="970" y2="1012"/>
  <line style="fill:none;stroke:rgb(0,0,0);stroke-miterlimit:10;stroke-linecap:square;" x1="959" x2="964" y1="940" y2="936"/>
  <line style="fill:none;stroke:rgb(0,0,0);stroke-miterlimit:10;stroke-linecap:square;" x1="959" x2="936" y1="940" y2="970"/>
  <line style="fill:none;stroke:rgb(0,0,0);stroke-miterlimit:10;stroke-linecap:square;" x1="938" x2="943" y1="943" y2="940"/>
  <line style="fill:none;stroke:rgb(0,0,0);stroke-miterlimit:10;stroke-linecap:square;" x1="938" x2="959" y1="943" y2="940"/>
  <line style="fill:none;stroke:rgb(0,0,0);stroke-miterlimit:10;stroke-linecap:square;" x1="938" x2="910" y1="943" y2="956"/>
  <line style="fill:none;stroke:rgb(0,0,0);stroke-miterlimit:10;stroke-linecap:square;" x1="907" x2="958" y1="914" y2="914"/>
  <line style="fill:none;stroke:rgb(0,0,0);stroke-miterlimit:10;stroke-linecap:square;" x1="977" x2="1037" y1="670" y2="745"/>
  <line style="fill:none;stroke:rgb(0,0,0);stroke-miterlimit:10;stroke-linecap:square;" x1="977" x2="973" y1="670" y2="666"/>
  <line style="fill:none;stroke:rgb(0,0,0);stroke-miterlimit:10;stroke-linecap:square;" x1="981" x2="1041" y1="670" y2="745"/>
  <line style="fill:none;stroke:rgb(0,0,0);stroke-miterlimit:10;stroke-linecap:square;" x1="981" x2="977" y1="670" y2="670"/>
  <line style="fill:none;stroke:rgb(0,0,0);stroke-miterlimit:10;stroke-linecap:square;" x1="981" x2="1041" y1="670" y2="745"/>
  <line style="fill:none;stroke:rgb(0,0,0);stroke-miterlimit:10;stroke-linecap:square;" x1="981" x2="981" y1="670" y2="670"/>
  <line style="fill:none;stroke:rgb(0,0,0);stroke-miterlimit:10;stroke-linecap:square;" x1="981" x2="972" y1="670" y2="655"/>
  <line style="fill:none;stroke:rgb(0,0,0);stroke-miterlimit:10;stroke-linecap:square;" x1="1150" x2="1151" y1="794" y2="817"/>
  <line style="fill:none;stroke:rgb(0,0,0);stroke-miterlimit:10;stroke-linecap:square;" x1="1150" x2="1074" y1="794" y2="462"/>
  <line style="fill:none;stroke:rgb(0,0,0);stroke-miterlimit:10;stroke-linecap:square;" x1="1156" x2="1158" y1="806" y2="829"/>
  <line style="fill:none;stroke:rgb(0,0,0);stroke-miterlimit:10;stroke-linecap:square;" x1="1156" x2="1150" y1="806" y2="794"/>
  <line style="fill:none;stroke:rgb(0,0,0);stroke-miterlimit:10;stroke-linecap:square;" x1="1158" x2="1159" y1="806" y2="829"/>
  <line style="fill:none;stroke:rgb(0,0,0);stroke-miterlimit:10;stroke-linecap:square;" x1="1158" x2="1156" y1="806" y2="806"/>
  <line style="fill:none;stroke:rgb(0,0,0);stroke-miterlimit:10;stroke-linecap:square;" x1="1170" x2="1171" y1="804" y2="827"/>
  <line style="fill:none;stroke:rgb(0,0,0);stroke-miterlimit:10;stroke-linecap:square;" x1="1170" x2="1158" y1="804" y2="806"/>
  <line style="fill:none;stroke:rgb(0,0,0);stroke-miterlimit:10;stroke-linecap:square;" x1="1174" x2="1170" y1="784" y2="804"/>
  <line style="fill:none;stroke:rgb(0,0,0);stroke-miterlimit:10;stroke-linecap:square;" x1="1174" x2="1198" y1="784" y2="469"/>
  <line style="fill:none;stroke:rgb(0,0,0);stroke-miterlimit:10;stroke-linecap:square;" x1="1176" x2="1171" y1="807" y2="827"/>
  <line style="fill:none;stroke:rgb(0,0,0);stroke-miterlimit:10;stroke-linecap:square;" x1="1176" x2="1174" y1="807" y2="784"/>
  <line style="fill:none;stroke:rgb(0,0,0);stroke-miterlimit:10;stroke-linecap:square;" x1="1184" x2="1180" y1="797" y2="817"/>
  <line style="fill:none;stroke:rgb(0,0,0);stroke-miterlimit:10;stroke-linecap:square;" x1="1184" x2="1176" y1="797" y2="807"/>
  <line style="fill:none;stroke:rgb(0,0,0);stroke-miterlimit:10;stroke-linecap:square;" x1="1184" x2="1300" y1="797" y2="502"/>
  <line style="fill:none;stroke:rgb(0,0,0);stroke-miterlimit:10;stroke-linecap:square;" x1="1264" x2="1225" y1="780" y2="816"/>
  <line style="fill:none;stroke:rgb(0,0,0);stroke-miterlimit:10;stroke-linecap:square;" x1="1264" x2="1447" y1="780" y2="550"/>
  <line style="fill:none;stroke:rgb(0,0,0);stroke-miterlimit:10;stroke-linecap:square;" x1="1264" x2="1225" y1="780" y2="816"/>
  <line style="fill:none;stroke:rgb(0,0,0);stroke-miterlimit:10;stroke-linecap:square;" x1="1264" x2="1264" y1="780" y2="780"/>
  <line style="fill:none;stroke:rgb(0,0,0);stroke-miterlimit:10;stroke-linecap:square;" x1="1306" x2="1264" y1="760" y2="780"/>
  <line style="fill:none;stroke:rgb(0,0,0);stroke-miterlimit:10;stroke-linecap:square;" x1="1306" x2="1583" y1="760" y2="571"/>
  <line style="fill:none;stroke:rgb(0,0,0);stroke-miterlimit:10;stroke-linecap:square;" x1="1267" x2="1225" y1="796" y2="816"/>
  <line style="fill:none;stroke:rgb(0,0,0);stroke-miterlimit:10;stroke-linecap:square;" x1="1267" x2="1306" y1="796" y2="760"/>
  <line style="fill:none;stroke:rgb(0,0,0);stroke-miterlimit:10;stroke-linecap:square;" x1="1259" x2="1217" y1="806" y2="826"/>
  <line style="fill:none;stroke:rgb(0,0,0);stroke-miterlimit:10;stroke-linecap:square;" x1="1259" x2="1267" y1="806" y2="796"/>
  <line style="fill:none;stroke:rgb(0,0,0);stroke-miterlimit:10;stroke-linecap:square;" x1="1277" x2="1235" y1="823" y2="843"/>
  <line style="fill:none;stroke:rgb(0,0,0);stroke-miterlimit:10;stroke-linecap:square;" x1="1277" x2="1259" y1="823" y2="806"/>
  <line style="fill:none;stroke:rgb(0,0,0);stroke-miterlimit:10;stroke-linecap:square;" x1="1317" x2="1275" y1="823" y2="843"/>
  <line style="fill:none;stroke:rgb(0,0,0);stroke-miterlimit:10;stroke-linecap:square;" x1="1317" x2="1277" y1="823" y2="823"/>
  <line style="fill:none;stroke:rgb(0,0,0);stroke-miterlimit:10;stroke-linecap:square;" x1="1337" x2="1295" y1="820" y2="840"/>
  <line style="fill:none;stroke:rgb(0,0,0);stroke-miterlimit:10;stroke-linecap:square;" x1="1337" x2="1317" y1="820" y2="823"/>
  <line style="fill:none;stroke:rgb(0,0,0);stroke-miterlimit:10;stroke-linecap:square;" x1="1337" x2="2081" y1="820" y2="590"/>
  <text style="fill:rgb(0,0,0);stroke:none;font-size:10px;" x="1706" y="854">HGRA</text>
  <text style="fill:rgb(0,0,0);stroke:none;font-size:10px;" x="1716" y="985">SROS</text>
  <text style="fill:rgb(0,0,0);stroke:none;font-size:10px;" x="1602" y="1107">EMUE</text>
  <text style="fill:rgb(0,0,0);stroke:none;font-size:10px;" x="1448" y="1185">COWC</text>
  <text style="fill:rgb(0,0,0);stroke:none;font-size:10px;" x="1257" y="1208">OCAR</text>
  <text style="fill:rgb(0,0,0);stroke:none;font-size:10px;" x="1090" y="1194">TSPH</text>
  <text style="fill:rgb(0,0,0);stroke:none;font-size:10px;" x="850" y="1026">PDAM</text>
  <text style="fill:rgb(0,0,0);stroke:none;font-size:10px;" x="869" y="967">NVEC</text>
  <text style="fill:rgb(0,0,0);stroke:none;font-size:10px;" x="836" y="729">DGIG</text>
  <text style="fill:rgb(0,0,0);stroke:none;font-size:10px;" x="953" y="654">SPIS</text>
  <text style="fill:rgb(0,0,0);stroke:none;font-size:10px;" x="954" y="641">AMIL</text>
  <text style="fill:rgb(0,0,0);stroke:none;font-size:10px;" x="1059" y="446">SCIL</text>
  <text style="fill:rgb(0,0,0);stroke:none;font-size:10px;" x="1186" y="453">HMIA</text>
  <text style="fill:rgb(0,0,0);stroke:none;font-size:10px;" x="1289" y="487">DMEL</text>
  <text style="fill:rgb(0,0,0);stroke:none;font-size:10px;" x="1440" y="537">HVUL</text>
  <text style="fill:rgb(0,0,0);stroke:none;font-size:10px;" x="1593" y="570">ATHA</text>
  <text style="fill:rgb(0,0,0);stroke:none;font-size:10px;" x="2092" y="592">AQUE</text>
  <text style="fill:rgb(0,0,0);stroke:none;font-size:10px;" x="1104" y="1177">TADH</text>
  <text style="fill:rgb(0,0,0);stroke:none;font-size:10px;" x="954" y="1008">OFAV</text>
  <text style="fill:rgb(0,0,0);stroke:none;font-size:10px;" x="835" y="920">EPAL, ATEN</text>
  <line style="fill:none;stroke:rgb(128,128,128);stroke-miterlimit:10;stroke-linecap:square;" x1="632" x2="773" y1="391" y2="391"/>
  <line style="fill:none;stroke:rgb(128,128,128);stroke-miterlimit:10;stroke-linecap:square;" x1="632" x2="632" y1="388" y2="394"/>
  <line style="fill:none;stroke:rgb(128,128,128);stroke-miterlimit:10;stroke-linecap:square;" x1="773" x2="773" y1="388" y2="394"/>
  <text style="fill:rgb(128,128,128);stroke:none;font-family:&quot;DejaVu Sans&quot;;font-size:10px;font-style:italic;" x="775" y="397">0.1</text>
</svg>
